<?xml version="1.0" standalone="no"?>
<!DOCTYPE svg PUBLIC "-//W3C//DTD SVG 1.1//EN" "http://www.w3.org/Graphics/SVG/1.1/DTD/svg11.dtd" >
<svg xmlns="http://www.w3.org/2000/svg">
<metadata>Generated by IcoMoon</metadata>
<defs>
<font id="icomoon" horiz-adv-x="1024">
<font-face units-per-em="1024" ascent="960" descent="-64" />
<missing-glyph horiz-adv-x="1024" />
<glyph unicode="&#x20;" horiz-adv-x="512" d="" />
<glyph unicode="&#xe900;" glyph-name="cake" d="M1006.742 89.641h-40.27v412.207c0 34.892-28.389 63.281-63.281 63.281h-303.856c25.043 23.393 40.741 56.667 40.741 93.561 0 55.192-44.902 100.094-100.094 100.094-3.067 0-6.112-0.189-9.142-0.465 10.528 72.612 73.16 128.578 148.641 128.578 9.534 0 17.258 7.725 17.258 17.258s-7.725 17.258-17.258 17.258c-94.643 0-172.849-71.553-183.466-163.396-3.967 0.476-7.964 0.766-11.996 0.766-55.192 0-100.094-44.902-100.094-100.094 0-36.892 15.698-70.168 40.741-93.561h-315.362c-28.548 0-51.775-23.228-51.775-51.775 0-21.858 13.623-40.583 32.819-48.165-1.273-4.347-3.171-7.856-5.412-11.98-5.033-9.26-11.299-20.788-11.299-42.108s6.266-32.849 11.299-42.113c4.128-7.594 7.11-13.080 7.11-25.628s-2.982-18.034-7.11-25.63c-5.035-9.26-11.299-20.788-11.299-42.113 0-21.322 6.266-32.849 11.299-42.113 4.128-7.594 7.11-13.080 7.11-25.628 0-12.55-2.982-18.039-7.11-25.635-5.035-9.262-11.299-20.791-11.299-42.117s6.266-32.851 11.299-42.115c1.592-2.929 3.010-5.548 4.156-8.376h-71.832c-9.534 0-17.258-7.725-17.258-17.258s7.725-17.258 17.258-17.258h9.991l9.955-34.834c7.322-25.63 33.937-45.705 60.593-45.705h828.404c26.656 0 53.271 20.077 60.595 45.705l9.952 34.834h9.991c9.534 0 17.258 7.725 17.258 17.258s-7.725 17.265-17.258 17.265zM418.441 658.693c0 36.16 29.418 65.577 65.577 65.577 7.605 0 15.056-1.293 22.153-3.838 0.055-0.021 0.115-0.025 0.17-0.046 0.826-0.288 1.678-0.515 2.557-0.674 0.136-0.025 0.274-0.041 0.41-0.062 0.87-0.136 1.753-0.228 2.66-0.228 0.969 0.002 1.855 0.092 2.722 0.228 0.138 0.023 0.274 0.037 0.41 0.062 0.879 0.159 1.73 0.389 2.557 0.674 0.055 0.018 0.115 0.025 0.17 0.046 7.097 2.545 14.548 3.838 22.153 3.838 36.16 0 65.577-29.418 65.577-65.577 0-51.589-41.97-93.559-93.559-93.559s-93.557 41.97-93.557 93.559zM109.303 530.615l793.888-0.002c15.862 0 28.764-12.902 28.764-28.764v-412.209h-34.517v389.198c0 9.534-7.725 17.258-17.258 17.258l-770.876 0.002c-9.517 0-17.258 7.741-17.258 17.258s7.741 17.258 17.258 17.258zM115.263 114.496c-4.128 7.596-7.11 13.084-7.11 25.635 0 12.553 2.982 18.041 7.11 25.637 3.47 6.386 7.525 13.85 9.708 24.857h686.174c9.534 0 17.258 7.725 17.258 17.258s-7.725 17.258-17.258 17.258h-686.174c-2.184 11.004-6.238 18.469-9.708 24.854-4.128 7.594-7.11 13.080-7.11 25.628s2.982 18.036 7.11 25.632c3.47 6.383 7.525 13.848 9.708 24.852h114.345c9.534 0 17.258 7.725 17.258 17.258s-7.725 17.258-17.258 17.258h-114.345c-2.184 11.004-6.238 18.469-9.708 24.854-4.128 7.594-7.11 13.080-7.11 25.628s2.982 18.034 7.11 25.628c3.47 6.386 7.525 13.85 9.708 24.854l737.95-0.009v-371.94h-737.95c-2.184 11.006-6.238 18.471-9.708 24.857zM953.609 29.773c-3.093-10.818-16.156-20.671-27.406-20.671h-828.404c-11.252 0-24.314 9.853-27.404 20.671l-7.242 25.351h897.701l-7.244-25.351zM811.146 360.619h-502.796c-9.534 0-17.258-7.725-17.258-17.258s7.725-17.258 17.258-17.258h502.796c9.534 0 17.258 7.725 17.258 17.258s-7.725 17.258-17.258 17.258z" />
<glyph unicode="&#xe901;" glyph-name="cheese" d="M529.297 369.749c-1.853 4.833-4.050 9.551-6.476 14.135-1.566 2.961-3.381 5.769-5.177 8.634-1.28 2.044-2.56 4.069-3.935 6.055-2.063 2.961-4.222 5.807-6.514 8.615-1.318 1.605-2.732 3.133-4.107 4.68-4.317 4.814-8.921 9.284-13.868 13.467-1.776 1.509-3.477 3.114-5.329 4.527-2.33 1.776-4.737 3.324-7.163 4.947-2.846 1.91-5.75 3.706-8.711 5.368-2.025 1.127-4.031 2.235-6.113 3.247-5.291 2.579-10.659 4.89-16.179 6.59-4.508 1.394-8.978 2.35-13.429 3.095-0.917 0.153-1.834 0.287-2.751 0.401-9.093 1.242-17.975 1.146-26.399-0.287-0.191-0.038-0.401-0.076-0.592-0.115-11.098-1.987-21.394-6.132-30.2-12.626-0.879-0.649-1.49-1.547-2.35-2.216-2.369-1.91-4.527-4.069-6.628-6.304-1.471-1.566-3.075-2.98-4.374-4.68-2.77-3.553-5.234-7.392-7.354-11.576-0.038-0.076-0.019-0.153-0.057-0.229-5.52-10.984-8.577-23.61-8.577-37.516 0-51.594 40.152-104.469 91.403-120.342 9.685-2.999 19.331-4.47 28.615-4.47 16.657 0 32.187 4.756 44.756 14.021 18.911 13.944 29.341 36.16 29.341 62.521 0 13.505-2.865 27.048-7.851 40.038 0.019 0 0.019 0 0.019 0.019zM391.228 405.966c1.815 1.91 3.897 3.496 6.132 4.871 1.28 0.802 2.674 1.414 4.088 2.025 1.948 0.86 3.954 1.643 6.113 2.159 1.585 0.363 3.247 0.516 4.928 0.688 2.483 0.267 4.967 0.516 7.622 0.363 0.707-0.038 1.433-0.096 2.159-0.191 3.916-0.382 7.966-1.089 12.168-2.388 3.954-1.223 7.794-2.904 11.576-4.775 0.783-0.382 1.547-0.783 2.311-1.184 7.679-4.126 14.9-9.455 21.318-15.702 0.325-0.325 0.669-0.63 0.993-0.974 6.208-6.189 11.595-13.219 16.007-20.668 0.649-1.127 1.299-2.235 1.91-3.381 0.401-0.745 0.688-1.528 1.089-2.273-9.513-10.621-25.539-13.753-43.915-8.118-22.75 7.068-43.648 25.692-55.319 48.748 0.267 0.306 0.554 0.535 0.821 0.802zM485.114 297.887c-9.838-7.259-23.82-8.577-39.388-3.801-24.374 7.564-45.845 28.557-56.79 52.282 13.582-11.996 29.111-21.337 45.482-26.418 9.666-2.98 19.217-4.432 28.366-4.432 12.932 0 25.024 3.018 35.625 8.5-1.165-11.27-5.654-20.516-13.295-26.132zM791.892 313.684c-20.745 6.418-41.279 3.648-56.446-7.545-14.537-10.716-22.865-28.347-22.865-48.385 0-38.49 29.876-77.879 68.022-89.684 7.354-2.273 14.67-3.4 21.757-3.4 12.875 0 24.909 3.706 34.689 10.926 14.537 10.716 22.865 28.328 22.865 48.366-0.019 38.51-29.895 77.936-68.022 89.722zM814.356 206.35c-5.387-3.973-13.39-4.623-22.483-1.796-22.292 6.896-41.107 31.27-41.107 53.199 0 5.578 1.261 13.161 7.335 17.65 3.19 2.33 7.259 3.534 11.939 3.534 3.266 0 6.8-0.573 10.544-1.738 22.292-6.896 41.107-31.27 41.107-53.218 0-5.578-1.261-13.161-7.335-17.631zM257.036 351.888c-20.726 6.418-41.279 3.648-56.446-7.545-14.537-10.716-22.865-28.347-22.865-48.385 0-38.49 29.876-77.879 68.022-89.684 7.354-2.273 14.67-3.4 21.757-3.4 12.875 0 24.909 3.706 34.689 10.926 14.537 10.716 22.865 28.328 22.865 48.366-0.019 38.51-29.895 77.936-68.022 89.722zM279.5 244.554c-5.387-3.973-13.39-4.604-22.483-1.796-22.292 6.896-41.107 31.27-41.107 53.199 0 5.578 1.261 13.161 7.335 17.65 3.19 2.33 7.259 3.534 11.939 3.534 3.266 0 6.8-0.573 10.544-1.738 22.292-6.896 41.107-31.27 41.107-53.218 0-5.578-1.261-13.161-7.335-17.631zM658.178 181.193c-15.473 4.756-31.022 2.674-42.636-5.903-11.175-8.252-17.574-21.662-17.574-36.829 0-27.793 21.49-56.198 48.92-64.698 5.425-1.681 10.85-2.521 16.122-2.521 9.78 0 18.968 2.846 26.514 8.405 11.175 8.252 17.593 21.681 17.593 36.848-0.038 27.812-21.528 56.217-48.939 64.698zM666.831 110.439c-1.681-1.242-4.986-1.299-8.653-0.172-11.538 3.572-22.005 17.020-22.005 28.214 0 1.375 0.21 4.718 2.044 6.055 0.86 0.649 2.178 0.974 3.782 0.974 1.452 0 3.114-0.267 4.871-0.802 11.538-3.572 22.005-17.001 22.005-28.195 0-1.375-0.21-4.699-2.044-6.074zM633.25 300.886c5.425-1.681 10.85-2.521 16.141-2.521 9.761 0 18.968 2.846 26.514 8.405 11.175 8.252 17.574 21.662 17.574 36.829 0 27.793-21.49 56.198-48.92 64.698-15.53 4.795-31.041 2.655-42.617-5.903-11.175-8.252-17.593-21.681-17.593-36.848-0.019-27.755 21.471-56.179 48.901-64.66zM624.597 371.64c0.879 0.649 2.197 0.974 3.782 0.974 1.452 0 3.114-0.267 4.871-0.802 11.538-3.572 22.005-17.020 22.005-28.214 0-1.375-0.21-4.718-2.044-6.055-1.643-1.242-4.986-1.28-8.653-0.172-11.538 3.572-22.005 17.001-22.005 28.195-0.019 1.375 0.191 4.718 2.044 6.074zM215.91 544.207c0 29.742-23.018 60.171-52.416 69.302-16.485 5.138-32.951 2.827-45.176-6.208-11.786-8.691-18.567-22.884-18.567-38.949 0-29.761 23.037-60.19 52.435-69.283 5.788-1.796 11.557-2.674 17.154-2.674 10.334 0 20.076 2.999 28.023 8.863 11.805 8.691 18.548 22.884 18.548 38.949zM174.688 536.031c-2.35-1.738-6.59-1.929-11.194-0.478-13.601 4.222-25.539 19.522-25.539 32.798 0 2.235 0.401 6.265 3.018 8.214 1.299 0.955 3.152 1.433 5.329 1.433 1.776 0 3.763-0.325 5.883-0.974 13.601-4.222 25.52-19.541 25.52-32.817 0-2.235-0.382-6.265-3.018-8.176zM942.339 284.363c0.306 1.318 0.879 2.445 1.337 3.668 0.439 1.184 0.745 2.445 1.299 3.515 0.038 0.076 0.115 0.134 0.153 0.21 1.051 1.968 2.35 3.725 3.82 5.31 1.929 2.082 4.241 3.725 6.839 5.005 0.516 0.267 1.089 0.458 1.624 0.688 2.483 1.032 5.177 1.738 8.099 2.063 0.401 0.038 0.764 0.153 1.184 0.191 2.445 0.21 5.024 0.076 7.66-0.229 0.306-0.038 0.592 0 0.898-0.038h0.019c0.21-0.019 0.478-0.134 0.707-0.172 2.369-0.382 4.718-0.955 7.316-1.796 1.528-0.497 3.209-1.223 4.871-1.91 1.012-0.42 2.044-0.764 3.056-1.203 1.089-0.497 2.216-0.764 3.362-1.032 0.401-0.096 0.783-0.287 1.184-0.363 1.394-0.248 2.789-0.287 4.183-0.229 0.172 0 0.344-0.038 0.516-0.019 1.49 0.096 2.961 0.401 4.393 0.86 0.076 0.019 0.153 0.019 0.248 0.038 0.936 0.306 1.796 0.821 2.674 1.28 0.554 0.287 1.146 0.458 1.662 0.802 3.897 2.502 6.609 6.323 7.908 10.621 0.516 1.757 0.86 3.553 0.86 5.425v42.674c0 41.107-19.312 80.649-51.69 105.959l-331.897 313.96c-7.010 6.628-17.841 7.010-25.253 0.879-5.979-4.928-14.823-5.941-24.966-2.789-23.725 7.354-43.763 33.314-43.763 56.695 0 4.833 0.936 9.131 2.77 12.76 3.801 7.545 2.197 16.676-3.916 22.483l-56.924 53.829c-0.497 0.458-1.012 0.898-1.547 1.299-44.45 33.887-98.986 44.489-139.693 26.647l-282.518-136.293c-32.13-13.887-52.912-46.437-52.989-83.17l-0.019-0.076v-300.952c0-5.673 2.521-11.041 6.877-14.689 4.355-3.61 10.048-5.1 15.664-4.107 6.361 1.203 13.142 0.688 20.076-1.471 28.672-8.882 52.893-40.286 52.893-68.614 0-10.926-3.763-19.732-10.602-24.775-7.641-5.635-18.624-6.628-31.003-2.789-7.583 2.35-15.282 6.628-22.827 12.703-5.75 4.584-13.601 5.54-20.248 2.33-6.628-3.171-10.831-9.876-10.831-17.211v-41.318c0-41.088 27.832-76.752 66.933-86.475l834.451-245.804c7.259-1.834 14.594-2.712 21.872-2.712 19.656 0 38.853 6.514 54.804 18.968 21.853 17.058 34.364 42.712 34.364 70.429v159.311c0 4.699-1.7 9.035-4.565 12.378-2.865 3.362-6.877 5.75-11.518 6.495-0.401 0.057-0.802 0.229-1.203 0.306-16.924 3.171-33.658 15.11-45.081 30.678v0c-5.463 7.469-9.494 15.759-11.958 24.279-0.688 2.407-1.452 4.795-1.853 7.221-0.554 3.419-0.783 6.743-0.726 9.857 0.038 1.643 0.344 3.114 0.535 4.642 0.153 1.261 0.191 2.598 0.478 3.782zM74.689 780.422l282.595 136.331c27.335 11.939 66.418 3.4 99.789-21.719l47.182-44.622c-1.203-5.119-1.796-10.449-1.796-15.988 0-39.98 31.041-80.897 70.677-93.179 16.065-4.986 31.977-4.565 45.539 0.917l304.027-287.619-328.631 97.879c-8.386 32.531-34.938 62.215-67.64 72.32-21.413 6.628-42.655 3.782-58.395-7.775-7.736-5.692-13.658-13.123-17.65-21.776l-384.886 114.555c-11.824 2.273-18.701 10.411-20.401 24.221-0.115 0.86-0.535 1.643-0.783 2.483 1.547 19.503 12.798 36.37 30.372 43.973zM558.886 531.562c0-6.055-1.394-14.326-8.080-19.236-5.883-4.355-14.518-5.062-24.374-2.025-2.961 0.917-5.883 2.12-8.691 3.591-16.905 8.749-30.582 26.456-34.154 44.202-0.592 2.923-0.898 5.845-0.898 8.73 0.076 0.42 0.325 2.502 0.363 2.904 0.038 0.458-0.134 0.879-0.115 1.318 0.592 5.329 2.521 11.289 7.813 15.186 3.496 2.579 7.966 3.878 13.085 3.878 3.515 0 7.335-0.611 11.327-1.853 22.197-6.877 40.916-29.99 43.285-52.091 0.019-0.172-0.019-0.325-0.019-0.497l0.458-4.107zM979.989 25.397c0-15.855-7.163-30.563-19.675-40.305-12.512-9.799-28.462-13.142-43.132-9.532l-834.432 245.804c-22.808 5.711-38.739 26.112-38.739 49.646v8.5c1.471-0.535 2.942-1.051 4.413-1.49 23.877-7.412 47.526-4.279 64.947 8.539 16.848 12.416 26.132 32.149 26.132 55.51 0 45.081-35.052 91.25-79.789 105.099-5.234 1.624-10.506 2.751-15.721 3.324v225.957c3.916-1.681 8.080-2.942 12.435-3.763l388.649-115.777c0.115-0.917 0.42-1.815 0.573-2.732 0.325-2.006 0.802-3.992 1.261-5.998 0.63-2.751 1.356-5.444 2.254-8.157 0.669-2.044 1.433-4.031 2.254-6.017 1.051-2.579 2.197-5.119 3.477-7.622 0.993-1.987 2.044-3.916 3.171-5.826 1.433-2.426 2.961-4.737 4.584-7.049 1.28-1.834 2.56-3.648 3.954-5.425 1.776-2.235 3.687-4.317 5.635-6.399 1.509-1.624 2.98-3.266 4.584-4.775 2.139-2.044 4.432-3.878 6.743-5.731 1.624-1.318 3.19-2.693 4.89-3.916 2.655-1.891 5.463-3.496 8.29-5.1 1.528-0.879 2.98-1.891 4.565-2.693 4.47-2.254 9.073-4.183 13.83-5.654 4.795-1.49 9.57-2.33 14.288-2.865 1.28-0.153 2.521-0.21 3.782-0.306 1.471-0.096 2.98-0.344 4.451-0.344 2.617 0 5.158 0.267 7.698 0.554 0.478 0.057 0.974 0.038 1.452 0.115 4.374 0.611 8.558 1.757 12.588 3.228 0.936 0.344 1.853 0.726 2.77 1.127 3.992 1.7 7.851 3.668 11.347 6.246 3.381 2.502 6.304 5.425 8.978 8.539 0.707 0.802 1.356 1.643 2.025 2.483 2.311 2.999 4.393 6.189 6.074 9.647 0.153 0.306 0.344 0.554 0.497 0.86 1.394 2.98 2.579 6.074 3.496 9.341l345.001-102.692c23.438-5.024 40.439-26.036 40.439-50.009v-17.096c-5.903 0.783-11.614 0.879-17.134 0.401-4.737-0.42-9.264-1.356-13.601-2.636-1.509-0.439-2.942-1.070-4.393-1.624-3.018-1.127-5.941-2.426-8.73-3.992-1.356-0.764-2.674-1.547-3.973-2.407-2.923-1.948-5.616-4.145-8.195-6.571-0.649-0.611-1.433-1.012-2.063-1.662-0.21-0.21-0.325-0.497-0.535-0.726-0.344-0.363-0.745-0.611-1.089-0.993-0.019-0.019-0.019-0.019-0.038-0.038-1.815-2.006-3.114-4.489-4.68-6.743-1.261-1.834-2.732-3.515-3.801-5.482-0.191-0.344-0.458-0.592-0.63-0.917-1.547-2.961-2.464-6.227-3.572-9.417-0.554-1.624-1.375-3.114-1.815-4.795-1.127-4.202-1.643-8.691-2.025-13.219-0.115-1.28-0.458-2.464-0.516-3.763 0-0.21-0.076-0.401-0.076-0.611-0.134-4.909 0.344-10.048 1.070-15.224 0.115-0.783 0.019-1.509 0.134-2.292 0.898-5.444 2.33-10.793 4.107-16.065 0.134-0.382 0.153-0.764 0.287-1.127 0.63-1.834 1.471-3.725 2.904-6.819 0.974-2.292 1.91-4.584 3.037-6.819 0.401-0.86 0.726-1.738 1.184-2.598 1.089-2.044 2.388-3.954 3.629-5.883 1.089-1.776 2.178-3.534 3.343-5.253l-0.019-0.019c0.764-1.28 1.566-2.56 2.35-3.591 3.114-4.26 6.571-8.252 9.494-11.308 0.401-0.478 1.242-1.49 1.7-1.948 1.318-1.356 2.751-2.502 4.107-3.782 0.63-0.592 1.28-1.184 1.929-1.776 3.19-2.884 6.476-5.54 9.876-8.023 0.611-0.439 1.203-0.898 1.815-1.337 3.572-2.502 7.24-4.756 10.984-6.781 0.573-0.306 1.108-0.669 1.681-0.955 4.355-2.254 8.787-4.279 13.295-5.864v-144.583z" />
<glyph unicode="&#xe902;" glyph-name="cow" d="M795.248 524.057c-0.702 1.586-8.052 14.176-17.428 22.026-2.872 2.41-10.28 6.486-10.28 6.486-8.132 4.056-16.946 6.124-26.182 6.124h-96.376c-11.084 0-20.078-8.996-20.078-20.078 0-11.084 8.996-20.078 20.078-20.078h96.376c7.408 0 12.67-4.116 15.52-8.032 2.35-3.212 3.554-8.212 3.554-11.064 0-11.084 8.994-20.078 20.078-20.078s20.078 8.994 20.078 20.078c0 8.614-1.808 16.926-5.34 24.616zM1023.136 380.175l-29.254 96.718v16.344c0 88.124-71.7 159.822-159.802 159.822h-367.555c16.284 9.016 30.178 22.348 39.776 38.952 3.594 6.224 3.594 13.894-0.020 20.118-18.572 32.086-53.106 52.002-90.132 52.002-22.91 0-44.694-7.408-62.524-20.842-1.024 0.944-2.068 1.848-3.152 2.71 22.026 19.396 35.94 47.786 35.94 79.35 0 11.104-8.994 20.078-20.078 20.078s-20.078-8.974-20.078-20.078c0-36.162-29.434-65.596-65.596-65.596h-52.344c-36.16 0-65.596 29.434-65.596 65.596 0 11.104-8.974 20.078-20.078 20.078-11.084 0-20.078-8.974-20.078-20.078 0-31.584 13.914-59.974 35.94-79.35-1.084-0.864-2.128-1.746-3.152-2.69-17.83 13.412-39.614 20.822-62.504 20.822-37.044 0-71.6-19.938-90.152-52.002-3.594-6.224-3.594-13.874 0-20.098 18.552-32.106 53.086-52.042 90.152-52.042 16.866 0 33.27 4.096 47.926 11.706l13.172-95.532c-15.802-9.818-26.342-27.326-26.342-47.244v-17.348c0-30.64 24.918-55.556 55.556-55.556h10.34v-15.2c0-48.77 22.828-94.026 61.54-122.98l18.754-228.832c0.844-10.42 9.558-18.432 19.998-18.432h142.034c10.46 0 19.154 8.012 20.018 18.432l16.224 198.172h62.062c1.888-3.554 3.936-7.008 6.084-10.36v-53.81c0-11.104 8.994-20.078 20.078-20.078 11.104 0 20.078 8.974 20.078 20.078v12.61c9.316-6.324 19.356-11.566 29.956-15.56v-32.848c0-11.084 8.974-20.078 20.078-20.078 11.084 0 20.078 8.996 20.078 20.078v23.972c3.594-0.26 24.436 0.1 31.102 1.044l-1.746-121.292c-0.060-5.38 2.008-10.562 5.782-14.376 3.774-3.834 8.934-5.984 14.296-5.984h145.848c9.858 0 18.252 7.148 19.818 16.886l29.114 180.524c0.18 1.064 0.26 2.128 0.26 3.192v248.268c0 22.286-4.678 43.81-13.914 63.95-1.988 4.358-11.866 21.344-14.556 25.118-6.204 8.674-13.272 16.644-21.062 23.832 60.676-5.722 108.302-56.942 108.302-119.104v-16.344l-29.254-96.718c-1.848-6.084-0.702-12.67 3.092-17.77s9.758-8.112 16.122-8.112h60.234c6.344 0 12.328 3.012 16.122 8.112 3.792 5.102 4.936 11.686 3.092 17.77zM135.112 696.167c-11.586-10.26-26.604-16.022-42.264-16.022-18.592 0-36.162 8.172-48.188 21.926 12.026 13.734 29.596 21.906 48.188 21.906 16.122 0 31.362-5.984 43.068-16.684-0.604-3.676-0.884-7.392-0.804-11.126zM416.147 723.976c18.572 0 36.14-8.172 48.168-21.906-12.026-13.754-29.576-21.926-48.168-21.926-15.662 0-30.68 5.762-42.284 16.002 0.080 3.754-0.2 7.49-0.804 11.144 11.706 10.704 26.964 16.686 43.088 16.686zM180.748 711.93c4.316 4.94 10.3 7.67 16.866 7.67h113.744c6.566 0 12.548-2.73 16.866-7.67 4.296-4.94 6.184-11.244 5.28-17.728l-3.754-27.286c-3.574 4.458-9.016 7.328-15.16 7.328-10.682 0-19.356-8.654-19.356-19.336s8.674-19.336 19.356-19.336c4.236 0 8.152 1.386 11.344 3.694v-0.020l-10.32-74.772h-122.258l-10.32 74.792v0.020c3.192-2.33 7.108-3.714 11.364-3.714 10.682 0 19.336 8.654 19.336 19.336s-8.654 19.336-19.336 19.336c-6.144 0-11.606-2.872-15.16-7.328l-3.772 27.284c-0.904 6.486 0.982 12.79 5.28 17.73zM183.16 476.169c-8.494 0-15.4 6.906-15.4 15.4v17.348c0 8.494 6.906 15.4 15.4 15.4h142.676c8.474 0 15.38-6.906 15.38-15.4v-17.348c0-8.494-6.906-15.4-15.38-15.4h-142.676zM312.301 90.726l-15.118 184.8c10.46-3.594 21.302-6.064 32.366-7.328l14.536-177.472h-31.784zM695.417 236.657c-10.862-3.794-22.328-5.722-34.072-5.722-30.98 0-59.532 13.592-78.928 36.242h108.984c7.408-7.79 15.64-14.758 24.496-20.76-6.446-3.978-13.312-7.272-20.48-9.76zM752.217 90.726h-31.924l1.626 113.402c11.586 5.38 22.448 12.288 32.246 20.54l-1.948-133.942zM854.8 499.441v-246.662l-26.142-162.052h-36.262l2.188 152.254c0.14 9.718-6.706 18.13-16.264 19.998-6.384 1.224-12.83 3.132-19.154 5.642-16.726 6.666-31.724 17.548-43.39 31.502-3.814 4.578-9.456 7.208-15.4 7.208h-246.8c-10.46 0-19.154-8.012-20.018-18.432l-16.224-198.172h-32.928l-16.244 198.172c-0.864 10.42-9.558 18.432-20.018 18.432h-0.12c-0.302 0.020-0.622 0.020-0.924 0.020-22.066 0-43.45 6.344-61.842 18.332-32.306 21.042-51.602 56.6-51.602 95.13v15.2h92.18c30.62 0 55.536 24.918 55.536 55.556v17.348c0 19.918-10.542 37.426-26.342 47.244l7.93 57.624c1.848-0.582 378.397-0.884 378.397-0.884 21.624 0 42.526-7.89 50.396-11.826 0.16-0.080 22.428-9.858 42.024-35.86 14.418-19.132 21.024-49.29 21.024-65.774zM964.266 389.773l9.538 31.522 9.538-31.522h-19.076zM795.248 524.057c-0.702 1.586-8.052 14.176-17.428 22.026-2.872 2.41-10.28 6.486-10.28 6.486-8.132 4.056-16.946 6.124-26.182 6.124h-96.376c-11.084 0-20.078-8.996-20.078-20.078 0-11.084 8.996-20.078 20.078-20.078h96.376c7.408 0 12.67-4.116 15.52-8.032 2.35-3.212 3.554-8.212 3.554-11.064 0-11.084 8.994-20.078 20.078-20.078s20.078 8.994 20.078 20.078c0 8.614-1.81 16.926-5.34 24.616z" />
<glyph unicode="&#xe903;" glyph-name="fish" d="M1007.413 146.108h-225.716c70.377 35.524 128.502 87.383 169.358 151.424 3.472 5.441 3.472 12.401 0 17.841-38.596 60.5-93.998 111.207-160.213 146.635-68.051 36.411-145.97 55.657-225.329 55.657-112.164 0-218.386-37.755-300.799-106.615-44.145 36.718-97.236 65.529-154.425 83.703-4.879 1.548-10.202 0.761-14.42-2.139-4.22-2.902-6.863-7.588-7.164-12.697-1.267-21.628 0.049-95.738 65.461-173.465-55.606-66.076-64.886-129.517-65.642-160.346h-71.937c-9.161 0-16.587-7.427-16.587-16.587s7.427-16.587 16.587-16.587h133.253l32.18-42.906c13.086-17.45 33.922-27.867 55.734-27.867h548.492c21.811 0 42.647 10.417 55.734 27.867l32.18 42.906h133.253c9.161 0 16.587 7.427 16.587 16.587 0 9.163-7.427 16.59-16.587 16.59zM917.208 306.46c-35.008-51.432-84.127-95-141.416-125.894-33.626 33.628-52.147 78.337-52.147 125.892 0 47.146 18.992 92.655 52.248 125.917 57.605-30.968 106.255-74.338 141.314-125.914zM725.425 164.907c0-6.664-1.847-13.146-5.277-18.799h-62.431c-3.43 5.653-5.277 12.135-5.277 18.799 0 20.122 16.371 36.492 36.492 36.492s36.492-16.369 36.492-36.492zM744.543 447.544c-34.553-38.558-54.073-88.993-54.073-141.089 0-25.467 4.492-50.24 13.073-73.434-4.713 1.011-9.599 1.555-14.61 1.555-8.3 0-16.262-1.464-23.652-4.14-8.238 24.169-12.41 49.457-12.41 75.325 0 57.395 20.728 111.923 58.554 154.653 11.237-3.837 22.28-8.146 33.117-12.87zM122.533 157.511c3.081 30.125 16.099 83.541 65.934 137.716 5.841 6.347 5.841 16.112 0 22.459-49.84 54.177-62.855 107.591-65.936 137.711 48.993-18.498 93.967-45.412 131.145-78.62 6.294-5.622 15.805-5.622 22.099 0 77.766 69.459 180.662 107.715 289.737 107.715 37.813 0 75.243-4.711 111.267-13.814-33.431-42.378-53.058-93.56-56.512-147.637h-108.265c-0.115 0-0.228-0.015-0.343-0.018-4.744 18.173-14.683 35.774-29.282 50.373-30.623 30.62-74.447 40.805-109.062 25.341-3.729-1.665-6.712-4.649-8.38-8.38-9.265-20.739-9.313-44.786-1.283-67.319h-116.621c-9.161 0-16.587-7.427-16.587-16.587s7.427-16.587 16.587-16.587h135.493c2.42-2.95 5.001-5.814 7.754-8.568 21.088-21.090 48.44-32.485 74.734-32.485 8.367 0 16.618 1.181 24.536 3.543l28.665-28.659c-2.167-2.378-4.193-4.888-6.091-7.493-15.137 11.806-33.799 18.372-53.202 18.372-27.59 0-53.458-13.327-69.838-35.393-0.314 0.007-0.626 0.007-0.936 0.007-15.568 0-29.957-5.133-41.568-13.796-25.507 14.504-49.296 31.527-70.804 50.738-6.292 5.622-15.807 5.622-22.099 0-37.178-33.208-82.15-60.12-131.143-78.618zM621.862 146.108h-89.849c-2.238 5.996-3.426 12.361-3.426 18.799 0 29.877 24.308 54.186 54.186 54.186 17.441 0 33.854-8.614 44.017-22.756-4.799-9.45-7.524-20.124-7.524-31.43 0-6.409 0.887-12.728 2.596-18.799zM582.773 252.268c-13.48 0-26.252-3.072-37.665-8.548l-33.042 33.036c1.126 4.293 1.902 8.674 2.342 13.111h105.771c1.002-17.096 3.616-33.934 7.829-50.388-13.467 8.194-29.068 12.79-45.235 12.79zM441.2 300.699l18.37-18.366c-16.035 1.504-32.744 9.335-45.832 22.426-18.755 18.755-26.752 44.945-20.745 65.925 20.984 6.005 47.173-1.99 65.927-20.743 12.040-12.043 19.617-27.146 21.931-41.971l-16.196 16.187c-6.478 6.478-16.981 6.478-23.457-0.002-6.478-6.476-6.476-16.981 0.002-23.457zM497.514 146.108h-141.83c6.051 11.797 18.317 19.905 32.463 19.905 1.772 0 3.747-0.21 6.405-0.683 6.942-1.234 13.907 2.059 17.364 8.205 9.656 17.191 27.668 27.865 47.004 27.865 14.628 0 28.61-6.071 38.773-16.733-1.475-6.354-2.28-12.963-2.28-19.759 0-6.343 0.736-12.642 2.101-18.799zM179.014 146.112c30.977 15.519 59.876 34.268 85.702 55.747 18.817-15.705 39.096-29.897 60.518-42.437-2.013-4.22-3.605-8.676-4.742-13.31h-141.478zM815.44 89.934c-6.856-9.141-17.769-14.597-29.194-14.597h-548.492c-11.425 0-22.34 5.456-29.194 14.597l-17.251 22.999h641.382l-17.251-22.999zM804.371 307.559c14.024 0 25.434 11.41 25.434 25.434s-11.41 25.434-25.434 25.434-25.434-11.41-25.434-25.434 11.41-25.434 25.434-25.434zM460.026 660.244c0-27.922 11.828-42.696 21.334-54.566 8.159-10.191 14.053-17.554 14.053-33.832 0-9.161 7.427-16.587 16.587-16.587s16.587 7.427 16.587 16.587c0 27.922-11.828 42.694-21.331 54.566-8.159 10.191-14.055 17.556-14.055 33.832 0 16.3 5.899 23.674 14.060 33.876 9.501 11.879 21.327 26.662 21.327 54.599 0 27.949-11.824 42.74-21.325 54.626-8.163 10.211-14.062 17.587-14.062 33.907 0 9.161-7.427 16.587-16.587 16.587s-16.587-7.427-16.587-16.587c0-27.949 11.824-42.74 21.325-54.626 8.163-10.213 14.062-17.592 14.062-33.911 0-16.3-5.899-23.674-14.060-33.876-9.501-11.877-21.327-26.662-21.327-54.595zM549.563 643.675c5.266 0 9.961 2.457 13.002 6.286 11.972 14.962 36.795 46.051 36.795 98.757 0 21.409-4.116 41.59-12.235 59.987-3.698 8.382-13.491 12.177-21.873 8.477-8.382-3.698-12.175-13.491-8.477-21.873 6.244-14.148 9.411-29.824 9.411-46.591 0-40.947-18.346-64.059-29.422-77.908-2.366-2.866-3.789-6.542-3.789-10.552 0-9.158 7.427-16.583 16.587-16.583zM416.511 590.761c2.221 0 4.479 0.449 6.644 1.398 8.391 3.674 12.215 13.456 8.541 21.847-6.151 14.048-9.269 29.605-9.269 46.239 0 41.115 18.507 64.251 29.568 78.081 0.299 0.374 0.582 0.761 0.847 1.159 3.716 5.571 3.698 12.943-0.018 18.514-5.080 7.624-15.38 9.68-23.001 4.6-1.964-1.309-3.556-2.964-4.755-4.83-12.292-15.404-35.816-46.228-35.816-97.523 0-21.241 4.056-41.276 12.056-59.547 2.727-6.226 8.816-9.937 15.203-9.937z" />
<glyph unicode="&#xe904;" glyph-name="chicken" d="M393.060 404.842c-77.934-20.58-144.752-73.156-183.316-144.242l27.554-14.946c34.462 63.522 94.154 110.496 163.766 128.882l-8.004 30.306zM611.714 166.026l28.104-13.882c14.228 28.802 42.924 46.694 74.89 46.694v31.348c-43.98-0.002-83.446-24.584-102.994-64.16zM583.206 137.142c7.744 62.944 61.444 111.85 126.374 111.85 54.648 0 103.14-34.788 120.664-86.57l29.692 10.050c-2.59 7.648-5.736 14.99-9.36 22.006l72.548 33.868c0.114-0.256 0.218-0.518 0.336-0.776 5.89-12.644 16.346-22.236 29.446-27.008 5.826-2.124 11.864-3.178 17.884-3.178 7.52 0 15.012 1.648 22.028 4.924 26.072 12.168 37.392 43.298 25.238 69.392-5.89 12.644-16.346 22.236-29.446 27.008-0.626 0.228-1.258 0.432-1.892 0.638 5.288 12.996 5.384 28.070-0.994 41.76-5.89 12.644-16.346 22.236-29.446 27.008-13.102 4.77-27.276 4.152-39.914-1.744-26.070-12.168-37.392-43.298-25.238-69.394 0.124-0.266 0.278-0.508 0.406-0.77l-92.768-43.306c-25.704 17.466-56.56 27.442-89.19 27.442-82.234 0-150.048-62.926-157.938-143.198h-408.098c8.22 171.636 150.652 308.748 324.566 308.748 107.148 0 207.37-52.726 268.1-141.044l25.83 17.76c-66.578 96.826-176.458 154.632-293.93 154.632-191.204 0-347.688-151.17-355.934-340.096h-112.17v-83.592h1024v83.592h-440.794zM970.748 270.522c2.402 0 4.81-0.42 7.134-1.266 5.23-1.906 9.408-5.738 11.762-10.792 4.864-10.436 0.338-22.886-10.084-27.75-5.042-2.354-10.698-2.602-15.922-0.696-5.23 1.906-9.406 5.738-11.762 10.792-4.862 10.436-0.34 22.886 10.082 27.75 2.8 1.306 5.788 1.962 8.79 1.962zM929.632 337.966c2.8 1.306 5.788 1.962 8.79 1.962 2.402 0 4.81-0.42 7.134-1.266 5.23-1.906 9.406-5.738 11.76-10.792 4.862-10.436 0.34-22.886-10.082-27.75-5.042-2.348-10.698-2.6-15.922-0.696-5.23 1.906-9.408 5.736-11.762 10.79-4.864 10.436-0.34 22.886 10.082 27.752zM914.85 272.492c1.854-0.936 3.75-1.802 5.73-2.522 0.63-0.23 1.268-0.398 1.904-0.602-1.044-2.562-1.88-5.204-2.51-7.9l-86.64-40.446c-2.648 3.294-5.414 6.48-8.302 9.54l89.818 41.93zM992.654 84.898h-961.308v20.898h961.306v-20.898zM339.688 699.852c-16.152 13.458-25.29 21.93-25.29 39.51 0 17.576 9.138 26.046 25.29 39.504 16.292 13.576 36.57 30.472 36.57 63.584h-31.346c0-17.574-9.138-26.044-25.288-39.502-16.292-13.576-36.57-30.472-36.57-63.586 0-33.118 20.278-50.016 36.57-63.592 16.152-13.458 25.288-21.93 25.288-39.508s-9.138-26.052-25.29-39.51c-16.292-13.578-36.57-30.476-36.57-63.592h31.346c0 17.578 9.138 26.052 25.29 39.51 16.292 13.578 36.57 30.476 36.57 63.592 0 33.114-20.276 50.012-36.57 63.59zM432.684 699.852c-16.152 13.458-25.29 21.93-25.29 39.51 0 17.576 9.138 26.046 25.29 39.504 16.292 13.576 36.57 30.472 36.57 63.584h-31.346c0-17.574-9.138-26.044-25.288-39.502-16.292-13.576-36.57-30.472-36.57-63.586 0-33.118 20.278-50.016 36.57-63.592 16.152-13.458 25.288-21.93 25.288-39.508s-9.138-26.052-25.29-39.51c-16.292-13.578-36.57-30.476-36.57-63.592h31.346c0 17.578 9.138 26.052 25.29 39.51 16.292 13.578 36.57 30.476 36.57 63.592 0 33.114-20.276 50.012-36.57 63.59zM524.634 699.852c-16.152 13.458-25.29 21.93-25.29 39.51 0 17.576 9.138 26.046 25.29 39.504 16.292 13.576 36.568 30.472 36.568 63.584h-31.346c0-17.574-9.138-26.044-25.288-39.502-16.292-13.576-36.57-30.472-36.57-63.586 0.002-33.118 20.28-50.016 36.572-63.592 16.152-13.458 25.288-21.93 25.288-39.508s-9.138-26.052-25.29-39.51c-16.292-13.578-36.57-30.476-36.57-63.592h31.346c0 17.578 9.138 26.052 25.29 39.51 16.292 13.578 36.568 30.476 36.568 63.592 0 33.114-20.274 50.012-36.568 63.59zM616.586 699.852c-16.15 13.458-25.29 21.93-25.29 39.51 0 17.576 9.138 26.046 25.29 39.504 16.292 13.576 36.57 30.472 36.57 63.584h-31.346c0-17.574-9.136-26.044-25.288-39.502-16.292-13.576-36.57-30.472-36.57-63.586 0-33.118 20.276-50.016 36.57-63.592 16.152-13.458 25.288-21.93 25.288-39.508s-9.136-26.052-25.29-39.51c-16.292-13.578-36.57-30.476-36.57-63.592h31.346c0 17.578 9.138 26.052 25.29 39.51 16.292 13.578 36.57 30.476 36.57 63.592 0 33.114-20.276 50.012-36.57 63.59z" />
<glyph unicode="&#xe905;" glyph-name="fruit" d="M1009.278 443.47h-95.191l63.385 97.708c4.426 6.822 2.482 15.938-4.34 20.364-6.82 4.423-15.936 2.485-20.361-4.34l-73.781-113.732h-158.824c-6.247 144.296-103.773 259.337-222.768 259.337-105.764 0-196.258-91.323-218.087-216.062-63.832 45.198-109.218 100.867-119.113 148.106-2.34 11.204-11.173 19.666-22.504 21.557-11.15 1.864-22.049-3.094-27.933-12.636-0.263-0.408-0.476-0.779-0.65-1.103-20.334-34.612-26.246-76.442-17.691-119.559-10.613 11.041-19.066 22.422-24.905 33.887-5.202 10.187-15.954 16.029-27.378 14.885-11.374-1.137-20.71-8.953-23.781-19.933l-0.106-0.385c-17.372-62.998 6.704-131.135 61.324-184.521-11.884 5.606-22.302 12.072-30.889 19.369-8.817 7.497-21.093 8.813-31.276 3.354-9.963-5.341-15.544-16.042-14.214-27.26l0.077-0.625c6.743-53.979 41.099-100.928 96.74-132.197 42.655-23.969 94.007-36.492 147.95-36.49 14.59 0 29.38 0.917 44.224 2.77 35.885 4.482 68.518 12.6 97.289 23.772 32.501-17.376 70.678-26.531 110.923-26.531 59.145 0 112.411 19.542 151.707 55.318 38.381-35.305 90.46-55.325 151.805-55.325 133.439 0 223.092 94.659 223.092 235.549-0.002 8.131-6.593 14.722-14.724 14.722zM455.541 657.895c0-1.080-4.53-5.662-13.589-5.662-7.945 0-12.403 3.522-13.381 5.116 4.729 2.281 9.547 4.326 14.439 6.14 8.323-0.349 12.532-4.557 12.532-5.594zM132.447 624.132c15.453-62.744 78.399-133.058 165.684-184.643 13.145-7.771 26.588-14.914 40.134-21.387-25.91 2.478-52.872 7.404-79.681 14.797-47.869 13.2-91.386 32.92-125.638 55.957-21.324 48.972-21.494 96.693-0.498 135.278zM42.523 539.413c31.294-56.527 110.454-107.936 208.232-134.899 57.655-15.897 114.959-21.168 163.75-15.852-39.28-21.014-89.642-36.343-144.002-43.13-40.743-5.089-80.467-4.917-115.888-0.095-84.073 47.409-128.56 124.576-112.092 193.977zM285.535 225.182c-13.682-1.708-27.183-2.534-40.435-2.534-110.178 0.005-201.857 57.118-214.979 138.451 39.622-31.491 105.166-48.836 180.068-48.833 20.717 0 42.168 1.327 63.965 4.050 87.108 10.878 165.525 42.972 209.763 85.849 1.887 1.828 3.248 4.127 3.945 6.659l18.694 67.8c0.283 1.021 0.947 1.581 1.456 1.869s1.329 0.571 2.351 0.292c1.024-0.283 1.581-0.947 1.871-1.456 0.288-0.51 0.573-1.329 0.29-2.353l-18.692-67.797c-0.503-1.823-0.65-3.726-0.433-5.603 10.249-88.698-73.287-159.585-207.865-176.39zM421.782 236.008c69.741 37.88 107.9 97.187 101.177 166.030l17.952 65.104c2.312 8.38 1.221 17.157-3.069 24.717s-11.27 12.994-19.65 15.304c-8.376 2.31-17.152 1.219-24.715-3.071-7.558-4.292-12.994-11.27-15.304-19.648l-15.166-55.001c-13.209-4.858-28.196-8.376-44.487-10.552-34.666 9.791-71.038 25.63-105.41 45.943-2.267 1.341-4.514 2.7-6.747 4.070 9.85 75.21 46.686 138.088 96.881 173.491 6.906-11.696 21.446-19.607 38.707-19.607 24.13 0 43.033 15.419 43.033 35.106 0 5.245-1.375 10.169-3.8 14.597 5.352 0.566 10.758 0.872 16.212 0.872 102.867 0 187.241-101.841 193.286-229.894h-98.147c-8.131 0-14.722-6.591-14.722-14.722 0-63.933 18.463-118.345 51.101-158.715-33.835-30.621-79.978-47.384-131.52-47.384-26.814 0-52.469 4.584-75.611 13.358zM937.893 275.091c-34.189-33.822-82.839-52.448-136.985-52.448-54.149 0-102.799 18.627-136.985 52.448-34.182 33.815-53.504 81.627-56.305 138.935h386.586c-2.806-57.306-22.128-105.118-56.31-138.935zM530.067 654.090c-24.13 0-43.033-15.419-43.033-35.106s18.903-35.106 43.033-35.106 43.033 15.419 43.033 35.106-18.903 35.106-43.033 35.106zM530.067 613.322c-9.060 0-13.589 4.582-13.589 5.662s4.53 5.662 13.589 5.662 13.589-4.582 13.589-5.662-4.53-5.662-13.589-5.662z" />
<glyph unicode="&#xe906;" glyph-name="sheep" d="M925.767 591.838c15.616 38.829 14.373 81.681-3.986 120.084-18.339 38.363-51.688 67.708-92.982 82.408-9.401 40.524-35.26 75.781-72.787 98.48-26.948 16.301-58.073 24.92-89.997 24.92-12 0-23.915-1.209-35.601-3.599-31.166 29.325-73.233 45.87-117.804 45.87h-1.221c-44.568 0-86.64-16.545-117.809-45.87-11.683 2.389-23.601 3.599-35.596 3.599-31.929 0-63.047-8.619-90-24.92-37.532-22.699-63.381-57.956-72.787-98.48-41.289-14.699-74.64-44.044-92.982-82.408-18.354-38.4-19.597-81.254-3.979-120.084-25.878-33.643-36.579-75.352-29.501-116.955 7.070-41.587 31.1-78.092 66.87-102.434-2.036-41.46 13.263-81.808 43.327-112.903 29.752-30.776 71.487-49.162 115.517-51.137 8.394-13.59 18.805-25.768 30.832-36.257v-203.783c0-17.876 14.492-32.368 32.368-32.368 17.879 0 32.368 14.492 32.368 32.368v168.906c1.926-0.551 3.845-1.104 5.795-1.59 14.021-3.504 28.426-5.276 42.815-5.276 29.469 0 48.128 7.236 73.37 21.036 25.239-13.8 43.9-21.036 73.372-21.036 14.39 0 28.794 1.777 42.813 5.276 1.953 0.485 3.877 1.041 5.798 1.59v-168.906c0-17.876 14.49-32.368 32.363-32.368 17.879 0 32.371 14.492 32.371 32.368v203.783c12.027 10.486 22.438 22.667 30.83 36.257 44.034 1.975 85.77 20.363 115.527 51.137 30.057 31.095 45.358 71.441 43.325 112.903 35.772 24.342 59.797 60.848 66.872 102.434 7.070 41.601-3.628 83.31-29.501 116.955zM903.568 483.672c-5.31-31.239-25.505-58.344-55.403-74.367l-16.657-8.921 3.199-18.625c5.327-31.027-4.635-62.286-27.336-85.765-21.704-22.452-52.958-35.326-85.736-35.326-2.089 0-4.211 0.054-6.298 0.158l-17.464 0.87-7.517-15.792c-13.968-29.328-40.962-52.248-74.871-59.348-49.137-10.296-96.953 12.824-103.141 15.967l-0.344 0.185-0.349-0.176c-6.188-3.148-53.996-26.261-103.139-15.972-33.907 7.105-60.901 30.020-74.867 59.348l-7.517 15.794-17.469-0.873c-2.085-0.105-4.206-0.156-6.3-0.156-32.775 0-64.022 12.876-85.726 35.326-22.704 23.479-32.666 54.74-27.341 85.765l3.199 18.625-16.655 8.921c-29.898 16.023-50.091 43.127-55.403 74.367-5.266 30.949 4.788 62.184 27.585 85.689l13.483 13.902-9.318 16.974c-15.37 27.984-16.335 60.45-2.655 89.068 13.978 29.24 41.331 50.805 75.045 59.168l17.727 4.396 2.019 18.152c3.501 31.473 22.016 59.507 50.8 76.917 18.768 11.349 40.507 17.349 62.864 17.349 12.342 0 24.552-1.812 36.296-5.383l16.289-4.954 11.149 12.863c21.133 24.381 52.334 38.685 86.038 39.651v-0.017c1.409 0.051 2.823 0.088 4.242 0.098 1.417-0.010 2.831-0.044 4.24-0.098l-0.002 0.017c33.714-0.963 64.907-15.267 86.043-39.651l11.147-12.863 16.294 4.954c11.742 3.572 23.957 5.383 36.298 5.383 22.36 0 44.095-6 62.861-17.349 28.787-17.41 47.299-45.444 50.8-76.917l2.021-18.152 17.725-4.396c33.712-8.363 61.069-29.928 75.047-59.168 13.68-28.618 12.712-61.084-2.658-89.068l-9.318-16.974 13.483-13.902c22.801-23.513 32.851-54.747 27.589-85.697zM699.441 513.429c2.26 7.066 3.326 14.414 3.177 21.906-0.388 18.235-7.987 35.262-21.394 47.94-10.113 9.572-22.621 15.85-36.325 18.264-11.696 23.396-36.172 38.356-63.159 38.356-0.549 0-1.068-0.002-1.56-0.020-4.696-0.098-9.35-0.644-13.873-1.631-13.268 14.407-32.095 22.604-52.161 22.604l-1.061-0.010-1.265 0.010c-20.031 0-38.849-8.199-52.131-22.604-4.523 0.99-9.177 1.538-13.868 1.631-27.663 0.634-52.785-14.473-64.712-38.339-13.714-2.411-26.227-8.692-36.34-18.264-13.402-12.688-20.994-29.713-21.382-47.94-0.161-7.483 0.905-14.831 3.167-21.911-28.857-14.431-55.411-39.821-71.682-68.74-12.41-22.060-12.388-50.057 0.051-71.336 9.687-16.569 25.288-26.073 42.813-26.073 19.4 0 47.557 11.659 75.218 64.683 1.063-5.376 2.17-10.645 3.291-15.645 9.292-41.487 26.531-99.228 55.908-138.715 23.060-30.991 50.261-46.699 80.847-46.699 30.583 0 57.788 15.709 80.85 46.699 29.396 39.514 46.633 97.243 55.918 138.718 1.126 5.049 2.231 10.318 3.282 15.645 27.675-53.021 55.825-64.68 75.225-64.685 17.518 0 33.124 9.499 42.818 26.066 12.446 21.282 12.464 49.286 0.049 71.341-16.269 28.916-42.828 54.309-71.7 68.749zM320.414 405.928c-9.982-12.734-18.264-17.269-22.686-17.269-3.172 0-5.61 3.031-7.092 5.569-4.225 7.231-5.481 19.917 0.293 30.171 18.639 33.134 48.462 51.583 66.241 57.005-11.422-33.57-23.771-58.934-36.754-75.476zM654.438 516.264c0 0-9.543-13.712-34.533-10.208 5.335-22.299-16.669-178.466-67.089-233.255-12.695-13.814-25.724-20.529-39.824-20.529-14.082 0-27.109 6.715-39.829 20.529-50.493 54.872-70.873 230.941-70.873 230.941s-37.537 0.741-37.537 30.71c0 14.785 13.3 26.802 28.95 26.802l18.388-0.678 3.894 16.569c2.918 12.388 14.814 21.372 28.279 21.372l0.68-0.010c4.632-0.095 9.055-1.2 13.139-3.279l18.295-9.343 9.462 18.235c4.918 9.467 14.907 15.345 26.068 15.345l1.083-0.017 1.119 0.020c11.149 0 21.129-5.881 26.036-15.348l9.472-18.235 18.281 9.338c4.103 2.085 8.526 3.191 13.166 3.287l0.666 0.010c13.47 0 25.359-8.984 28.265-21.37l3.901-16.569 18.395 0.675c15.643 0 28.633-12.022 28.952-26.8 0.139-6.639-2.282-13.102-6.807-18.193zM735.356 394.23c-1.485-2.545-3.928-5.573-7.097-5.573-4.428 0-12.707 4.537-22.691 17.276-12.971 16.533-25.324 41.896-36.752 75.466 17.783-5.425 47.596-23.871 66.243-57.010 5.771-10.245 4.52-22.93 0.297-30.159z" />
<glyph unicode="&#xe907;" glyph-name="spagetti" d="M614.859 310.857c9.462 0 17.142 7.662 17.142 17.142 0 66.15-53.825 119.993-119.993 119.993-9.462 0-17.142-7.662-17.142-17.142s7.68-17.142 17.142-17.142c47.26 0 85.709-38.449 85.709-85.709 0-9.462 7.662-17.142 17.142-17.142zM666.285 310.857c9.462 0 17.142 7.662 17.142 17.142 0 94.52-76.898 171.418-171.418 171.418-37.815 0-68.567-30.752-68.567-68.567 0-9.479 7.68-17.142 17.142-17.142s17.142 7.662 17.142 17.142c0 18.907 15.376 34.284 34.284 34.284 75.613 0 137.134-61.522 137.134-137.134 0-9.462 7.662-17.142 17.142-17.142zM512.009 396.566c-9.462 0-17.142-7.662-17.142-17.142s7.68-17.142 17.142-17.142c18.907 0 34.284-15.376 34.284-34.284 0-9.479 7.68-17.142 17.142-17.142s17.142 7.662 17.142 17.142c0 37.815-30.77 68.567-68.567 68.567zM717.71 310.857c9.462 0 17.142 7.662 17.142 17.142 0 122.872-99.971 222.843-222.843 222.843h-34.284c-47.26 0-85.709-38.449-85.709-85.709 0-9.479 7.68-17.142 17.142-17.142s17.142 7.662 17.142 17.142c0 28.353 23.073 51.425 51.425 51.425h34.284c103.965 0 188.56-84.595 188.56-188.56 0-9.462 7.662-17.142 17.142-17.142zM272.023 705.119c9.462 0 17.142 7.662 17.142 17.142h85.709c27.89 0 52.471 13.593 68.122 34.284h480.416c28.353 0 51.425 23.073 51.425 51.425s-23.073 51.425-51.425 51.425h-480.416c-15.668 20.69-40.249 34.284-68.122 34.284h-85.709c0 9.479-7.68 17.142-17.142 17.142s-17.142-7.662-17.142-17.142v-171.418c0-9.462 7.662-17.142 17.142-17.142zM374.874 859.395c17.21 0 32.398-8.571 41.723-21.599l2.451-4.2c2.314-3.943 3.994-7.988 5.211-12.102 0.086-0.291 0.189-0.566 0.274-0.857 1.149-4.165 1.766-8.399 1.766-12.685s-0.617-8.502-1.766-12.685c-0.069-0.291-0.189-0.566-0.274-0.857-1.2-4.097-2.897-8.142-5.211-12.102l-2.451-4.2c-9.342-13.028-24.513-21.599-41.723-21.599h-85.709v34.284c12.445-0.017 33.392-0.034 68.567-0.034 9.462 0 17.142 7.662 17.142 17.142s-7.68 17.142-17.142 17.142c-35.244 0-56.174 0.017-68.567 0.034v34.318h85.709zM220.598 705.119c9.462 0 17.142 7.662 17.142 17.142v171.418c0 9.479-7.68 17.142-17.142 17.142s-17.142-7.662-17.142-17.142v-171.418c0-9.462 7.662-17.142 17.142-17.142zM220.598 482.275c9.462 0 17.142 7.662 17.142 17.142v171.418c0 9.479-7.68 17.142-17.142 17.142s-17.142-7.662-17.142-17.142v-171.418c0-9.462 7.662-17.142 17.142-17.142zM169.172 670.835c-9.462 0-17.142-7.662-17.142-17.142v-171.418c0-9.479 7.68-17.142 17.142-17.142s17.142 7.662 17.142 17.142v171.418c0 9.479-7.68 17.142-17.142 17.142zM83.463 773.686c-9.462 0-17.142-7.662-17.142-17.142s7.68-17.142 17.142-17.142h68.567v-39.238c0-9.479 7.68-17.142 17.142-17.142s17.142 7.662 17.142 17.142v193.514c0 9.479-7.68 17.142-17.142 17.142s-17.142-7.662-17.142-17.142v-17.142h-68.567c-9.462 0-17.142-7.662-17.142-17.142s7.68-17.142 17.142-17.142h68.567v-17.142h-68.567c-9.462 0-17.142-7.662-17.142-17.142s7.68-17.142 17.142-17.142h68.567v-17.142h-68.567zM871.112 122.297c-8.708 95.96-89.497 171.418-187.686 171.418h-119.993c-9.462 0-17.142-7.662-17.142-17.142s7.68-17.142 17.142-17.142h119.993c79.264 0 144.711-60.116 153.265-137.134h-17.313c-8.485 67.539-66.15 119.993-135.952 119.993h-102.851c-9.462 0-17.142-7.662-17.142-17.142s7.68-17.142 17.142-17.142h102.851c50.86 0 93.097-37.146 101.308-85.709h-17.33c-7.971 39.066-42.58 68.567-83.978 68.567h-85.709c-9.462 0-17.142-7.662-17.142-17.142s7.68-17.142 17.142-17.142h85.709c22.319 0 41.175-14.382 48.271-34.284h-31.13c0 9.479-7.68 17.142-17.142 17.142h-85.709c-9.462 0-17.142-7.662-17.142-17.142h-17.433c-6.017 252.276-144.3 342.836-273.977 342.836h-17.142c-94.52 0-171.418-76.898-171.418-171.418v-85.709c0-9.479 7.68-17.142 17.142-17.142s17.142 7.662 17.142 17.142v85.709c0 75.613 61.522 137.134 137.134 137.134h17.142c170.544 0 235.271-156.265 239.728-308.552h-17.125c-4.8 182.886-87.252 291.411-222.621 291.411-66.167 0-119.993-53.842-119.993-119.993v-17.142c0-9.479 7.68-17.142 17.142-17.142s17.142 7.662 17.142 17.142v17.142c0 47.26 38.449 85.709 85.709 85.709 159.282 0 185.577-167.99 188.286-257.127h-17.108c-4.92 197.748-95.137 239.985-171.178 239.985-28.353 0-51.425-23.073-51.425-51.425 0-9.479 7.68-17.142 17.142-17.142s17.142 7.662 17.142 17.142c0 9.462 7.697 17.142 17.142 17.142 88.64 0 133.398-67.47 136.809-205.702h-16.816c0 9.479-7.68 17.142-17.142 17.142h-85.709c-9.462 0-17.142-7.662-17.142-17.142h-31.13c7.097 19.902 25.953 34.284 48.271 34.284h85.709c9.462 0 17.142 7.662 17.142 17.142s-7.68 17.142-17.142 17.142h-85.709c-41.38 0-76.007-29.501-83.978-68.567h-17.33c8.194 48.563 50.431 85.709 101.308 85.709h68.567c9.462 0 17.142 7.662 17.142 17.142s-7.68 17.142-17.142 17.142h-68.567c-69.801 0-127.466-52.454-135.952-119.993h-17.313c8.571 77.018 74.001 137.134 153.265 137.134h34.284c9.462 0 17.142 7.662 17.142 17.142s-7.68 17.142-17.142 17.142h-34.284c-98.188 0-178.995-75.458-187.686-171.418h-118.604l52.197-78.287c24.564-36.838 65.67-58.848 109.965-58.848h699.694c44.277 0 85.383 21.993 109.965 58.848l52.197 78.287h-152.905z" />
<glyph unicode="&#xe908;" glyph-name="pig" d="M210.521 457.052c-5.423-2.262-8.017-8.419-5.757-13.843 1.398-3.662 4.434-16.211-15.106-24.028-5.455-2.181-8.108-8.374-5.928-13.828 1.664-4.162 5.66-6.691 9.881-6.691 1.315 0 2.653 0.245 3.947 0.762 13.238 5.296 22.172 13.266 26.553 23.694 5.889 14.019 0.932 26.73 0.347 28.134-2.257 5.428-8.513 8.068-13.936 5.8zM675.213 596.358c0.813 0 1.64 0.094 2.466 0.289 5.717 1.36 9.251 7.094 7.894 12.811-17.066 71.874 21.394 134.261 21.783 134.883 3.128 4.964 1.645 11.526-3.315 14.664-4.97 3.14-11.538 1.655-14.677-3.304-1.794-2.836-43.679-70.351-24.496-151.157 1.164-4.891 5.53-8.185 10.345-8.185zM511.865 669.505c-14.117 11.226-31.702 13.708-52.266 7.383-5.617-1.73-8.768-7.681-7.040-13.298 1.728-5.613 7.677-8.764 13.296-7.040 13.638 4.196 24.351 2.985 32.757-3.689 25.311-20.108 26.634-84.323 25.008-107.368-0.415-5.86 3.994-10.949 9.853-11.366 0.257-0.019 0.515-0.028 0.768-0.028 5.532 0 10.2 4.279 10.6 9.881 0.689 9.617 5.6 94.849-32.977 125.525zM315.599 636.318c1.955 0 3.936 0.54 5.708 1.668l137.802 87.827c4.955 3.157 6.411 9.734 3.253 14.689s-9.732 6.411-14.689 3.253l-137.802-87.827c-4.955-3.157-6.411-9.734-3.253-14.689 2.028-3.181 5.466-4.921 8.981-4.921zM483.444 743.294c1.955 0 3.936 0.54 5.708 1.668l23.54 15.004c4.955 3.157 6.411 9.734 3.253 14.689-3.155 4.955-9.732 6.408-14.689 3.253l-23.54-15.004c-4.955-3.157-6.411-9.734-3.253-14.689 2.028-3.183 5.466-4.921 8.981-4.921zM831.881 279.335c-32.506-1.36-63.785-9.917-88.074-24.1-5.074-2.962-6.783-9.477-3.821-14.551 1.977-3.387 5.538-5.274 9.196-5.274 1.819 0 3.668 0.47 5.355 1.455 21.345 12.462 49.128 19.996 78.234 21.213 5.87 0.247 10.43 5.204 10.185 11.074-0.247 5.868-5.191 10.419-11.074 10.183zM811.181 504.063c5.406-4.038 11.117-5.489 16.391-5.489 7.106 0 13.426 2.63 17.149 5.109 4.889 3.257 6.215 9.862 2.96 14.753-3.26 4.889-9.857 6.213-14.753 2.96-0.047-0.036-5.136-3.183-9.008-0.289-4.709 3.519-11.377 2.551-14.889-2.153-3.519-4.706-2.555-11.374 2.151-14.889zM607.903 442.407c8.24-6.377 20.185-7.821 29.313-7.821 5.879 0 10.589 0.598 12.385 0.864 5.806 0.857 9.808 6.253 8.962 12.060-0.847 5.808-6.262 9.832-12.055 8.991-7.496-1.079-20.811-0.96-25.581 2.732-4.651 3.596-11.33 2.743-14.926-1.902-3.596-4.647-2.745-11.328 1.902-14.923zM352.584 249.525c-5.255-2.626-7.385-9.017-4.757-14.272 3.585-7.17-8.147-17.84-11.489-20.308-4.73-3.462-5.768-10.098-2.319-14.843 2.083-2.862 5.323-4.381 8.611-4.381 2.17 0 4.36 0.662 6.249 2.034 11.3 8.219 27.802 27.368 17.979 47.013-2.628 5.26-9.017 7.391-14.272 4.757zM1019.366 302.227l-87.385 335.489c-15.487 59.442-63.996 103.2-124.287 112.651-21.57 28.338-53.574 47.089-89.762 51.67l-159.057 20.211c-30.998 3.949-62.585-3.126-88.923-19.894l-78.842-50.119h-146.268c-69.674 0-130.598-47.094-148.153-114.519l-12.413-47.608c-33.319 11.234-61.264 7.445-80.94-11.126-2.298-2.168-3.511-5.245-3.317-8.394 0.194-3.151 1.779-6.055 4.326-7.923 22.443-16.457 35.413-40.102 41.142-52.73 3.123-6.879 7.743-12.787 13.364-17.46l-49.549-190.251c-11.111-42.681-2.015-87.17 24.955-122.061 24.719-31.979 61.032-51.406 100.872-54.434 14.821-15.272 32.104-27.623 51.502-36.672 22.97-10.711 48.517-16.37 73.879-16.37h535.746c50.774 0 98.67 21.866 131.917 60.079 25.913 8.777 48.925 25 66.238 47.398 26.972 34.891 36.068 79.381 24.955 122.064zM111.557 214.246c-25.821 14.315-41.591 31.181-40.181 38.687 0.668 0.487 3.989 2.43 14.326 2.43 17.189 0 40.696-5.204 56.387-9.257l-30.532-31.86zM125.095 197.623c11.743-5.226 24.257-7.434 36.951-7.434 28.266 0 57.325 10.704 80.213 22.072-0.194-2.479-0.296-4.981-0.296-7.502 0-7.84 0.972-15.517 2.855-22.97h-71.968c-18.138 0-35.353 4.623-50.383 13.091l2.628 2.743zM266.972 181.787c-2.468 7.362-3.732 15.057-3.732 22.97 0 29.845 17.798 55.996 44.936 67.034 2.074 0.845 6.711 2.366 6.874 2.423 8.155 2.426 16.911 3.413 25.44 2.809 37.919-2.485 67.621-34.23 67.621-72.268 0-7.911-1.264-15.608-3.732-22.97h-137.408zM350.561 302.069c0 39.938 32.494 72.434 72.434 72.434s72.434-32.494 72.434-72.434c0-8.826-1.568-17.364-4.621-25.46-27.051-5.808-49.587-23.383-62.43-46.757-0.8-0.057-1.598-0.128-2.404-0.157-9.634 34.728-38.842 61.668-75.24 67.553-0.102 1.596-0.172 3.202-0.172 4.821zM423.044 395.778c1.411 1.551 2.745 3.011 3.955 4.323 1.228-1.481 2.432-3.045 3.621-4.657-2.502 0.2-5.023 0.334-7.577 0.334zM531.99 299.159c11.115 1.128 21.002 6.615 27.84 15.453 6.781 8.76 9.702 20.081 8.019 31.057-0.077 0.496-0.164 1.006-0.243 1.504 15.696-14.985 36.932-24.219 60.296-24.219 48.191 0 87.4 39.208 87.4 87.402 0 7.338-0.921 14.466-2.632 21.281 3.662-1.615 7.428-3.162 11.315-4.621 4.936-1.851 9.983-2.732 14.94-2.732 7.183 0 14.168 1.86 20.332 5.283-5.874-11.015-9.079-23.398-9.079-36.055 0-16.755 5.387-32.66 15.134-45.711-15.289-4.543-29.411-10.815-41.742-18.689-16.257-10.379-28.413-22.832-35.959-36.547-18.708 16.287-47.285 20.119-55.862 20.119-32.051 0-61.4-17.77-76.576-45.298-12.398 6.745-26.483 10.747-41.44 11.253 1.611 6.243 2.574 12.649 2.862 19.189 5.526 0.413 10.706 0.855 15.396 1.33zM627.903 476.482c36.462 0 66.123-29.664 66.123-66.125s-29.662-66.125-66.123-66.125-66.125 29.664-66.125 66.125 29.664 66.125 66.125 66.125zM819.222 551.669c30.502 0 55.317-24.823 55.317-55.336 0-12.745-4.464-25.094-12.417-34.894-10.877 5.66-22.915 8.664-35.328 8.664-16.257 0-31.889-5.126-44.915-14.56-11.372 10.413-17.991 25.16-17.991 40.789-0.002 30.513 24.821 55.336 55.334 55.336zM825.962 310.372c-52.604 0-99.44-17.736-125.698-46.419 2.119 17.536 14.249 34.134 34.755 47.225 24.132 15.406 56.428 23.891 90.94 23.891s66.806-8.485 90.938-23.891c20.506-13.091 32.636-29.689 34.755-47.225-26.253 28.683-73.087 46.419-125.691 46.419zM864.454 352.995c-12.404 2.194-25.315 3.351-38.491 3.351-12.679 0-25.115-1.070-37.089-3.102-11.111 10.426-17.415 24.851-17.415 40.268 0 15.555 6.3 29.972 17.719 40.581 10.274 9.502 23.632 14.734 37.617 14.734 11.215 0 22.025-3.336 31.245-9.634 15.087-10.364 24.094-27.438 24.094-45.681-0.002-15.549-6.4-30.064-17.679-40.517zM438.167 181.787c-0.047 1.074-0.074 2.149-0.074 3.221 0 35.719 26.591 66.53 61.885 71.67 3.423 0.509 6.972 0.766 10.549 0.766 39.94 0 72.434-32.494 72.434-72.436 0-1.072-0.028-2.147-0.074-3.221h-144.719zM572.739 255.008c11.113 22.021 33.953 36.398 59.011 36.398 10.668 0 38.277-6.33 47.819-21.819-0.609-3.677-0.949-7.398-0.949-11.16v-76.64h-74.449c0.036 1.074 0.068 2.149 0.068 3.221 0 27.813-12.191 52.823-31.5 70zM699.896 207.351c6.504-7.106 14.419-13.696 23.677-19.604 3.294-2.102 6.721-4.085 10.257-5.96h-33.934v25.564zM735.022 205.678c-13.689 8.74-23.632 19.049-29.381 30.149 20.068 31.519 67.483 53.268 120.321 53.268 52.968 0 101.268-20.57 119.751-53.953-1.37-2.506-2.853-4.962-4.445-7.368-5.877-8.030-14.053-15.508-24.368-22.096-24.132-15.404-56.428-23.891-90.938-23.891s-66.808 8.487-90.94 23.891zM928.349 329.112c-11.966 7.64-25.608 13.783-40.372 18.289 9.936 13.128 15.43 29.174 15.43 46.113 0 21.172-8.783 41.185-23.925 55.559 10.481 13.396 16.334 30.072 16.334 47.262 0 35.034-23.643 64.63-55.8 73.719 15.013 24.377 16.066 59.117 3.251 102.496 14.462-14.651 25.070-32.934 30.332-53.057l81.119-310.319c0.33-1.26 0.598-2.526 0.877-3.789-7.094 8.691-16.221 16.689-27.245 23.728zM481.371 784.402c22.164 14.113 48.73 20.060 74.821 16.738l159.063-20.211c38.551-4.881 71.476-28.87 88.072-64.174 18.079-38.457 43.815-107.921 13.674-142.189-0.4-0.357-1.064-0.953-1.94-1.736-40.315-2.17-72.451-35.649-72.451-76.496 0-1.353 0.053-2.698 0.123-4.036-19.308 5.215-22.843 9.079-22.902 9.132-3.253 4.891-9.857 6.221-14.751 2.962-4.891-3.253-6.217-9.86-2.962-14.751 3.47-5.213 11.264-12.13 40.949-19.404 1.54-0.383 3.043-0.732 4.528-1.072 2.036-5.362 4.689-10.464 7.866-15.238-5.47-7.26-15.106-10.321-24-6.987-10.97 4.119-20.919 8.906-29.57 14.226-13.774 8.466-18.347 26.272-10.411 40.536 27.145 48.785 45.819 118.557 46.6 121.502 1.506 5.679-1.877 11.504-7.555 13.011-5.683 1.509-11.502-1.879-13.011-7.555-0.185-0.696-18.762-70.128-44.628-116.615-4.109-7.383-6.228-15.328-6.538-23.217-11.611 5.713-24.66 8.934-38.449 8.934-3.36 0-6.67-0.211-9.932-0.579 17.489 25.464 28.138 44.755 28.719 45.813 2.828 5.149 0.945 11.615-4.204 14.443-5.151 2.832-11.615 0.943-14.445-4.202-0.181-0.323-17.908-32.417-44.762-67.764-16.368-9.762-29.281-24.715-36.472-42.574-0.749-0.766-1.496-1.536-2.245-2.285-3.577 11.728-6.162 19.519-6.466 20.43-1.857 5.574-7.889 8.587-13.455 6.728-5.572-1.857-8.585-7.881-6.728-13.455 0.217-0.653 21.836-65.821 28.904-111.872 0.817-5.317-0.538-10.574-3.813-14.806-3.234-4.179-7.908-6.772-13.164-7.306-4.468-0.453-9.419-0.877-14.704-1.274-5.713 31.060-26.772 56.802-55.015 69.038-7.538 14.328-16.183 26.198-25.76 35.251-4.185 3.96-10.76 3.868-14.832-0.209-5.177-5.177-15.311-16.294-30.915-33.917-27.989-11.081-49.404-35.251-56.651-64.936 0 0-19.311-22.368-26.628-30.868-26.423-8.994-46.708-28.738-56.636-53.536-25.325-14.674-46.357-22.487-63.596-26.006l12.272 15.011c3.719 4.549 3.047 11.251-1.502 14.97-4.549 3.715-11.251 3.049-14.97-1.502l-25.038-30.621c-5.589 0.443-10.477 1.4-14.726 2.638 0 0 31.723 33.932 35.334 37.577 6.698 6.762 18.615 16.325 32.434 16.325 5.874 0 10.638 4.762 10.638 10.638s-4.764 10.638-10.638 10.638c-23.913 0-42.217-16.56-50.566-25.791-14.377 4.087-48.145 12.881-72.649 12.881-4.040 0-7.728-0.26-11.091-0.753l26.485 192.966c0.117 0.853 0.126 1.755 0.034 2.613-0.355 3.34-7.54 80.968 84.14 103.127 26.266-24.189 60.711-39.449 62.974-40.436 1.385-0.604 2.828-0.889 4.247-0.889 4.102 0 8.013 2.387 9.757 6.389 2.349 5.385-0.115 11.657-5.5 14.004-21.208 9.245-76.902 40.421-79.885 73.234-0.909 10 0.011 23.26 9.56 29.613 9.766 6.5 27.142 4.84 44.272-4.226 21.521-11.394 47.906-42.196 51.355-68.179 1.362-10.253-1.049-18.106-7.368-24.004-4.296-4.009-4.528-10.74-0.519-15.036 4.011-4.298 10.743-4.528 15.036-0.517 11.389 10.63 16.211 25.279 13.943 42.359-2.934 22.104-17.289 45.147-34.274 62.419l212.512 135.083zM271.865 717.898c15.774 0 30.642-4.962 42.991-14.134l-62.768-39.9c-3.851 2.794-7.694 5.234-11.44 7.217-10.789 5.713-21.579 9.149-31.7 10.281 12.647 22.319 36.336 36.536 62.917 36.536zM155.993 622.667c1.489-10.872 6.383-21.081 13.243-30.423-8.766-2.704-16.653-5.898-23.766-9.451l9.598 36.698c0.279 1.070 0.617 2.117 0.926 3.177zM333.767 715.786c-7.104 6.247-15.098 11.345-23.662 15.174h47.532l-23.87-15.174zM231.817 730.292c-8.247-3.872-15.851-8.936-22.602-15-37.128-17.804-64.321-50.619-74.732-90.417l-13.611-52.040c-4.517 2.74-10.206 5.949-16.734 9.113l13.14 50.402c14.011 53.815 60.104 92.559 114.538 97.942zM28.111 570.59c26.613 13.072 63.017-4.785 80.7-15.351-9.519-10.634-15.802-21.736-19.932-31.711-2.906-7.019-4.902-13.826-6.294-20.138-7.779 2.336-14.317 7.84-17.721 15.34-5.596 12.328-17.245 33.823-36.753 51.859zM796.256 93.961h-535.746c-22.274 0-44.713 4.972-64.885 14.377-9.994 4.662-19.334 10.345-27.996 16.925h714.962c2.311 0 4.609 0.087 6.9 0.196-26.523-20.281-59.142-31.498-93.236-31.498zM977.577 193.174c-22.908-29.636-57.53-46.634-94.987-46.634h-736.511c-37.455 0-72.079 16.998-94.987 46.634-22.913 29.642-30.638 67.434-21.2 103.689l48.357 185.676c0.504-0.134 1.006-0.272 1.515-0.389-0.245-5.453-0.062-9.536 0.089-11.585 0 0-29.8-216.61-29.828-218.276-0.17-10.179 5.453-20.823 16.808-31.802 22.551-37.579 62.062-59.974 106.015-59.974h682.967c38.64 0 74.319 17.508 97.881 48.030 1.645 2.132 3.194 4.313 4.687 6.523 3.972 5.398 7.153 11.045 9.562 16.879 11.94 25.594 14.698 54.564 7.357 82.615l-81.119 310.319c-9.302 35.57-32.711 66.302-64.455 84.934-2.121 5-4.383 10.081-6.804 15.255 43.147-13.272 76.759-47.785 88.466-92.715l87.385-335.487c9.44-36.257 1.713-74.049-21.198-103.691zM247.806 630.228c-4.572 4.234-11.874 3.687-15.734-1.415-3.323-4.391-2.474-10.704 1.557-14.455 17.277-16.077 16.13-22.806 16.072-23.085-0.232-1.134-2.128-2.036-2.585-2.198v0c-4.443-2.181-5.881-7.821-3.021-11.862v0c4.64-6.564 14.17-7.647 19.86-1.97 2.879 2.872 5.396 6.568 6.466 11.183 2.932 12.666-4.464 26.996-22.615 43.802zM187.927 551.109c-1.655 5.636-7.564 8.87-13.206 7.208-49.062-14.413-58.934-63.621-59.33-65.708-1.096-5.772 2.696-11.34 8.468-12.436 0.67-0.128 1.336-0.189 1.996-0.189 5.009 0 9.472 3.555 10.44 8.655 0.072 0.385 7.704 38.474 44.425 49.264 5.634 1.66 8.862 7.57 7.206 13.206z" />
</font></defs></svg>